STAT_TIME,HOSTNAME,CPU_SYSTEM,CPU_IDLE,CPU_USER,CPU_WIO,LOAD_FIFTEEN,LOAD_FIVE,LOAD_ONE,MEM_SWAP_CACHED,SWAP_FREE,PKTS_IN,PKTS_OUT,TX_ERRS_ETH0,TX_PKTS_ETH0,RX_ERRS_ETH0,RX_PKTS_ETH0,TCP_ESTABLISHED
201512140000,TROI-101-01,1.80,94.60,2.40,1.20,10.45,6.71,2.97,0,5241848,13771.50,12405.54,0.00,971.32,0.00,1493.80,27.00
201512140000,TROI-101-02,1.00,95.70,3.20,0.10,9.84,6.60,2.79,0,5241848,10135.65,10331.19,0.00,560.21,0.00,1159.55,18.00
201512140000,TROI-101-03,1.00,90.80,7.90,0.30,10.48,7.76,4.42,0,5241848,18708.26,15100.82,0.00,1258.63,0.00,331.38,26.00
201512140000,TROI-101-04,0.30,95.40,4.00,0.30,11.64,7.53,5.88,0,5241848,20214.66,21246.60,0.00,329.54,0.00,845.61,27.00
201512140000,TROI-101-05,0.60,94.10,5.30,0.10,12.28,9.97,6.08,0,5241848,18607.43,17757.99,0.00,1030.45,0.00,1431.73,21.00
201512140000,TROI-101-06,1.00,92.70,6.10,0.20,10.46,7.16,4.12,0,5241848,22135.98,21691.91,0.00,5856.31,0.00,1827.65,30.00
201512140000,TROI-101-07,1.20,95.50,3.10,0.20,9.63,6.47,3.92,0,5241848,15832.63,15769.98,0.00,1045.65,0.00,430.36,27.00
201512140000,TROI-101-08,1.00,92.30,6.60,0.10,10.09,6.67,4.02,0,5241848,14825.12,14122.10,0.00,1407.64,0.00,515.79,23.00
201512140000,TROI-101-09,0.70,93.50,5.50,0.20,11.20,7.93,4.71,0,5241848,29135.10,29466.76,0.00,1425.59,0.00,805.19,16.00
201512140000,TROI-101-10,1.60,93.10,5.10,0.20,11.53,8.51,4.42,0,5241848,25127.96,21429.27,0.00,1245.60,0.00,771.34,25.00
201512140000,TROI-101-11,0.70,93.10,5.90,0.20,10.85,7.84,6.25,0,5241848,16951.97,15617.76,0.00,3341.12,0.00,5111.28,24.00
201512140000,TROI-101-12,0.80,92.70,6.10,0.40,10.29,6.73,4.59,0,5241848,17225.67,19152.62,0.00,3004.63,0.00,1742.75,18.00
201512140000,TROI-102-01,0.90,90.20,8.70,0.20,10.73,8.19,5.18,0,5241848,14619.55,11241.07,0.00,1464.07,0.00,1076.48,28.00
201512140000,TROI-102-02,0.50,95.00,4.20,0.30,10.10,5.65,3.70,0,5241848,20412.12,20557.03,0.00,1771.31,0.00,2164.32,17.00
201512140000,TROI-102-03,0.60,95.00,4.20,0.10,9.86,6.38,4.55,0,5241848,13423.47,14000.88,0.00,1840.22,0.00,2855.84,21.00
201512140000,TROI-102-04,0.40,94.20,5.30,0.10,11.41,7.95,4.47,0,5241848,17508.45,16538.88,0.00,2712.62,0.00,941.53,34.00
201512140000,TROI-102-05,0.40,95.10,4.10,0.40,10.24,7.50,3.98,0,5241848,17840.28,17098.30,0.00,2585.94,0.00,1620.61,29.00
201512140000,TROI-102-06,0.80,91.20,7.70,0.30,9.45,6.76,4.20,0,5241848,21730.17,20223.68,0.00,2051.12,0.00,2966.32,23.00
201512140000,TROI-102-07,0.70,95.00,4.10,0.20,11.80,9.29,4.41,0,5241848,19924.11,18090.77,0.00,5776.34,0.00,1981.27,19.00
201512140000,TROI-102-08,0.60,90.30,8.90,0.30,10.79,8.47,6.32,0,5241848,20095.35,19430.09,0.00,4490.12,0.00,4741.52,36.00
201512140000,TROI-102-09,0.40,95.30,3.90,0.30,10.43,7.26,5.25,0,5241848,25793.31,21511.09,0.00,363.59,0.00,705.34,20.00
201512140000,TROI-102-10,1.60,85.10,13.00,0.20,11.90,9.22,6.80,0,5241848,37376.41,28016.19,0.00,4430.79,0.00,9503.04,23.00
201512140000,TROI-102-11,1.70,90.10,8.10,0.20,11.53,8.09,5.12,0,5241848,16959.01,16224.25,0.00,1462.01,0.00,1100.32,24.00
201512140000,TROI-102-12,2.10,92.60,5.10,0.20,10.79,7.94,4.34,0,5241848,22531.98,23502.08,0.00,1486.46,0.00,1823.53,26.00
201512140001,TROI-101-01,2.50,74.40,22.60,0.40,9.79,5.72,2.73,0,5241848,10643.50,9019.27,0.00,3687.77,0.00,2617.64,24.00
201512140001,TROI-101-02,2.50,74.80,22.30,0.30,9.84,6.60,2.79,0,5241848,10070.99,9989.93,0.00,272.33,0.00,735.99,24.00
201512140001,TROI-101-03,3.80,69.10,26.60,0.50,10.48,7.76,4.42,0,5241848,20808.03,19297.42,0.00,3769.44,0.00,4808.03,36.00
201512140001,TROI-101-04,1.00,86.60,11.70,0.70,10.86,6.57,5.07,0,5241848,11043.11,11030.71,0.00,1309.96,0.00,931.34,53.00
201512140001,TROI-101-05,2.50,73.30,23.40,0.90,11.35,8.23,5.07,0,5241848,14721.88,16487.18,0.00,1941.77,0.00,4102.71,23.00
201512140001,TROI-101-06,4.10,65.90,29.80,0.30,9.81,6.24,3.92,0,5241848,15795.31,15125.25,0.00,5216.18,0.00,4564.59,21.00
201512140001,TROI-101-07,2.30,73.50,23.70,0.40,8.98,5.55,3.56,0,5241848,12893.32,13293.21,0.00,1234.66,0.00,4457.37,59.00
201512140001,TROI-101-08,2.70,71.10,25.90,0.30,9.72,6.23,4.52,0,5241848,14604.17,12644.44,0.00,1546.66,0.00,1321.97,30.00
201512140001,TROI-101-09,2.30,77.70,19.70,0.30,10.27,6.52,4.32,0,5241848,13778.43,14672.70,0.00,2513.27,0.00,629.00,43.00
201512140001,TROI-101-10,2.70,69.30,27.50,0.50,10.76,7.66,6.95,0,5241848,21217.39,23440.51,0.00,1941.50,0.00,50.13,22.00
201512140001,TROI-101-11,2.10,72.40,24.80,0.60,10.26,6.88,4.46,0,5241848,20059.51,18860.91,0.00,2327.55,0.00,2338.28,27.00
201512140001,TROI-101-12,3.10,73.90,22.50,0.50,9.62,5.90,4.24,0,5241848,18978.23,17351.79,0.00,4842.90,0.00,3975.50,34.00
201512140001,TROI-102-01,3.50,65.10,31.10,0.30,10.73,8.19,5.18,0,5241848,21922.73,22208.05,0.00,1975.07,0.00,4229.90,66.00
201512140001,TROI-102-02,2.10,79.00,18.20,0.60,9.99,5.87,5.72,0,5241848,18197.68,14491.90,0.00,2926.51,0.00,1675.92,25.00
201512140001,TROI-102-03,2.20,73.00,24.50,0.30,9.29,5.58,3.17,0,5241848,13808.10,13655.69,0.00,1637.99,0.00,2396.14,27.00
